GET https://js.stripe.com/v2/ HTTP/2.0
user-agent: Mozilla/5.0 (Windows NT 10.0; WOW64) AppleWebKit/537.36 (KHTML, like Gecko) Chrome/71.0.3578.98 Safari/537.36
accept: */*
referer: https://checkout.stripe.com/m/v3/index-3f0dc197837628f45156bf4f7ed0f6ad.html?distinct_id=0dbde9b1-3c48-746a-e922-c88fcae47f7e
accept-encoding: gzip, deflate, br
accept-language: en-GB,en-US;q=0.9,en;q=0.8

